[
  {
    "Name": "Dhaka",
    "Code": "1200",
    "Lat": 34.8923578,
    "Long": 90.3652148,
    "Altitude": 5,
    "Precision": 0.0111,
    "ParentCode": null,
    "ParentId": null,
    "CatchmentLevelId": "6bcb1c07618b4f6b970c2690b9fcb42f",
    "Id": "d"
  },
  {
    "Name": "Dhaka-North",
    "Code": "12002",
    "Lat": null,
    "Long": null,
    "Altitude": null,
    "Precision": null,
    "ParentCode": "1200",
    "ParentId": "d",
    "CatchmentLevelId": "d22f8179177b4a56aa6aa301ffb2bcd3",
    "Id": "dn"
  },
  {
    "Name": "Dhaka-South",
    "Code": "12001",
    "Lat": null,
    "Long": null,
    "Altitude": null,
    "Precision": null,
    "ParentCode": "1200",
    "ParentId": "d",
    "CatchmentLevelId": "d22f8179177b4a56aa6aa301ffb2bcd3",
    "Id": "ds"
  },
  {
    "Name": "Khilgaon Thana",
    "Code": "1219",
    "Lat": null,
    "Long": null,
    "Altitude": null,
    "Precision": null,
    "ParentCode": "12001",
    "ParentId": "ds",
    "CatchmentLevelId": "cb0407f7e68e4254958f6f4cccfcbb85",
    "Id": "khil"
  },
  {
    "Name": "Ramna Thana",
    "Code": "1201",
    "Lat": null,
    "Long": null,
    "Altitude": null,
    "Precision": null,
    "ParentCode": "12001",
    "ParentId": "ds",
    "CatchmentLevelId": "cb0407f7e68e4254958f6f4cccfcbb85",
    "Id": "ramna"
  },
  {
    "Name": "Rampura thana",
    "Code": "1210",
    "Lat": null,
    "Long": null,
    "Altitude": null,
    "Precision": null,
    "ParentCode": "12001",
    "ParentId": "ds",
    "CatchmentLevelId": "cb0407f7e68e4254958f6f4cccfcbb85",
    "Id": "rampura"
  },
  {
    "Name": "Dhaka-East",
    "Code": "12008",
    "Lat": null,
    "Long": null,
    "Altitude": null,
    "Precision": null,
    "ParentCode": "1200",
    "ParentId": "d",
    "CatchmentLevelId": "d22f8179177b4a56aa6aa301ffb2bcd3",
    "Id": "de"
  },
  {
    "Name": "Barisal",
    "Code": "1300",
    "Lat": null,
    "Long": null,
    "Altitude": null,
    "Precision": null,
    "ParentCode": null,
    "ParentId": null,
    "CatchmentLevelId": "6bcb1c07618b4f6b970c2690b9fcb42f",
    "Id": "barisal"
  },
  {
    "Name": "Chittagong",
    "Code": "1100",
    "Lat": 34.8923578,
    "Long": 90.3652148,
    "Altitude": 5,
    "Precision": 0.0122,
    "ParentCode": null,
    "ParentId": null,
    "CatchmentLevelId": "6bcb1c07618b4f6b970c2690b9fcb42f",
    "Id": "chit"
  },
  {
    "Name": "Shahbag thana",
    "Code": "1215",
    "Lat": null,
    "Long": null,
    "Altitude": null,
    "Precision": null,
    "ParentCode": "12001",
    "ParentId": "ds",
    "CatchmentLevelId": "cb0407f7e68e4254958f6f4cccfcbb85",
    "Id": "shahbag"
  },
  {
    "Name": "new market",
    "Code": "858",
    "Lat": null,
    "Long": null,
    "Altitude": null,
    "Precision": null,
    "ParentCode": "1215",
    "ParentId": "shahbag",
    "CatchmentLevelId": "3940ba6dac1f413b9aae70cfd84a0203",
    "Id": "newmarket"
  }
]